# Blender v2.76 (sub 0) OBJ File: 'tuile.blend'
# www.blender.org
o Cube
v 1.000000 -0.270916 -1.000000
v 1.000000 -0.270916 1.000000
v -1.000000 -0.270916 1.000000
v -1.000000 -0.270916 -1.000000
v 1.000000 0.270916 -0.999999
v -1.000000 0.270916 -1.000000
v 0.999999 0.270916 1.000001
v -1.000000 0.270916 1.000000
v -0.532393 0.270916 0.218886
v -0.544642 0.270916 0.212867
v 0.379608 0.270916 -0.442448
v 0.405233 0.270916 -0.435508
v 0.428692 0.270916 -0.425985
v 0.449858 0.270916 -0.413990
v 0.468608 0.270916 -0.399633
v 0.484816 0.270916 -0.383027
v 0.498358 0.270916 -0.364281
v 0.509108 0.270916 -0.343508
v 0.516942 0.270916 -0.320818
v 0.521733 0.270916 -0.296323
v 0.523358 0.270916 -0.270133
v 0.522830 0.270916 -0.251807
v 0.521219 0.270916 -0.234772
v 0.518483 0.270916 -0.218946
v 0.514580 0.270916 -0.204244
v 0.509469 0.270916 -0.190584
v 0.503108 0.270916 -0.177883
v 0.495455 0.270916 -0.166057
v 0.486469 0.270916 -0.155022
v 0.476108 0.270916 -0.144696
v 0.464330 0.270916 -0.134994
v 0.451094 0.270916 -0.125834
v 0.436358 0.270916 -0.117133
v 0.452571 0.270916 -0.110871
v 0.467229 0.270916 -0.102702
v 0.480358 0.270916 -0.092805
v 0.491988 0.270916 -0.081355
v 0.502145 0.270916 -0.068531
v 0.510858 0.270916 -0.054508
v 0.518155 0.270916 -0.039465
v 0.524062 0.270916 -0.023577
v 0.528608 0.270916 -0.007024
v 0.531821 0.270916 0.010020
v 0.533728 0.270916 0.027376
v 0.534358 0.270916 0.044867
v 0.532534 0.270916 0.074568
v 0.527182 0.270916 0.102561
v 0.518483 0.270916 0.128679
v 0.506617 0.270916 0.152756
v 0.491766 0.270916 0.174624
v 0.474108 0.270916 0.194117
v 0.453826 0.270916 0.211068
v 0.431099 0.270916 0.225311
v 0.406108 0.270916 0.236679
v 0.379034 0.270916 0.245006
v 0.350057 0.270916 0.250124
v 0.319358 0.270916 0.251867
v 0.307568 0.270916 0.251577
v 0.295701 0.270916 0.250714
v 0.283764 0.270916 0.249289
v 0.271766 0.270916 0.247311
v 0.259711 0.270916 0.244792
v 0.247608 0.270916 0.241742
v 0.235463 0.270916 0.238171
v 0.223284 0.270916 0.234089
v 0.211077 0.270916 0.229508
v 0.198849 0.270916 0.224436
v 0.186607 0.270916 0.218886
v 0.174358 0.270916 0.212867
v 0.059808 0.270916 0.199980
v 0.058205 0.270916 0.207770
v 0.055624 0.270916 0.215164
v 0.052136 0.270916 0.222089
v 0.047815 0.270916 0.228473
v 0.042733 0.270916 0.234242
v 0.036964 0.270916 0.239324
v 0.030580 0.270916 0.243645
v 0.023655 0.270916 0.247133
v 0.016261 0.270916 0.249714
v 0.008471 0.270916 0.251317
v 0.000358 0.270916 0.251867
v -0.007755 0.270916 0.251317
v -0.015545 0.270916 0.249714
v -0.022939 0.270916 0.247133
v -0.029864 0.270916 0.243645
v -0.036248 0.270916 0.239324
v -0.042017 0.270916 0.234242
v -0.047099 0.270916 0.228473
v -0.051420 0.270916 0.222089
v -0.054908 0.270916 0.215164
v -0.057489 0.270916 0.207770
v -0.059092 0.270916 0.199980
v -0.059642 0.270916 0.191867
v -0.200517 0.270916 0.128679
v -0.212383 0.270916 0.152756
v -0.227234 0.270916 0.174624
v -0.244892 0.270916 0.194117
v -0.265174 0.270916 0.211068
v -0.287901 0.270916 0.225311
v -0.312892 0.270916 0.236679
v -0.339966 0.270916 0.245006
v -0.368943 0.270916 0.250124
v -0.399642 0.270916 0.251867
v -0.411432 0.270916 0.251577
v -0.423299 0.270916 0.250714
v -0.435236 0.270916 0.249289
v -0.447234 0.270916 0.247311
v -0.459289 0.270916 0.244792
v -0.471392 0.270916 0.241742
v -0.483537 0.270916 0.238171
v -0.495716 0.270916 0.234089
v -0.507923 0.270916 0.229508
v -0.520151 0.270916 0.224436
v -0.544642 0.270916 0.106867
v -0.531682 0.270916 0.115243
v -0.518799 0.270916 0.122872
v -0.505986 0.270916 0.129758
v -0.493234 0.270916 0.135904
v -0.480539 0.270916 0.141314
v -0.467892 0.270916 0.145992
v -0.455287 0.270916 0.149940
v -0.442716 0.270916 0.153163
v -0.430173 0.270916 0.155664
v -0.417651 0.270916 0.157446
v -0.405143 0.270916 0.158512
v -0.392642 0.270916 0.158867
v -0.376403 0.270916 0.157983
v -0.361230 0.270916 0.155376
v -0.347189 0.270916 0.151117
v -0.334346 0.270916 0.145274
v -0.322766 0.270916 0.137918
v -0.312517 0.270916 0.129117
v -0.303663 0.270916 0.118941
v -0.296271 0.270916 0.107460
v -0.290407 0.270916 0.094742
v -0.286137 0.270916 0.080858
v -0.283527 0.270916 0.065876
v -0.282642 0.270916 0.049867
v -0.283662 0.270916 0.033454
v -0.286721 0.270916 0.017811
v -0.291814 0.270916 0.003086
v -0.298938 0.270916 -0.010577
v -0.308090 0.270916 -0.023032
v -0.319267 0.270916 -0.034133
v -0.332464 0.270916 -0.043734
v -0.347679 0.270916 -0.051689
v -0.364907 0.270916 -0.057852
v -0.384146 0.270916 -0.062077
v -0.405392 0.270916 -0.064220
v -0.428642 0.270916 -0.064133
v -0.428642 0.270916 -0.154133
v -0.407079 0.270916 -0.154897
v -0.387392 0.270916 -0.157161
v -0.369579 0.270916 -0.160883
v -0.353642 0.270916 -0.166022
v -0.339579 0.270916 -0.172536
v -0.327392 0.270916 -0.180383
v -0.317079 0.270916 -0.189522
v -0.308642 0.270916 -0.199911
v -0.302079 0.270916 -0.211508
v -0.297392 0.270916 -0.224272
v -0.294579 0.270916 -0.238161
v -0.293642 0.270916 -0.253133
v -0.294589 0.270916 -0.268374
v -0.297383 0.270916 -0.282564
v -0.301954 0.270916 -0.295649
v -0.308234 0.270916 -0.307577
v -0.316153 0.270916 -0.318298
v -0.325642 0.270916 -0.327758
v -0.336630 0.270916 -0.335906
v -0.349049 0.270916 -0.342689
v -0.362829 0.270916 -0.348055
v -0.377901 0.270916 -0.351952
v -0.394195 0.270916 -0.354329
v -0.411642 0.270916 -0.355133
v -0.420799 0.270916 -0.354963
v -0.429818 0.270916 -0.354443
v -0.438767 0.270916 -0.353555
v -0.447716 0.270916 -0.352281
v -0.456734 0.270916 -0.350605
v -0.465892 0.270916 -0.348508
v -0.475258 0.270916 -0.345974
v -0.484901 0.270916 -0.342985
v -0.494892 0.270916 -0.339524
v -0.505299 0.270916 -0.335573
v -0.516193 0.270916 -0.331115
v -0.527642 0.270916 -0.326133
v -0.527642 0.270916 -0.419133
v -0.517425 0.270916 -0.423905
v -0.507244 0.270916 -0.428226
v -0.497048 0.270916 -0.432102
v -0.486790 0.270916 -0.435540
v -0.476421 0.270916 -0.438549
v -0.465892 0.270916 -0.441133
v -0.455155 0.270916 -0.443301
v -0.444160 0.270916 -0.445059
v -0.432861 0.270916 -0.446414
v -0.421207 0.270916 -0.447374
v -0.409150 0.270916 -0.447944
v -0.396642 0.270916 -0.448133
v -0.367058 0.270916 -0.446693
v -0.339392 0.270916 -0.442448
v -0.313767 0.270916 -0.435508
v -0.290309 0.270916 -0.425985
v -0.269142 0.270916 -0.413990
v -0.250392 0.270916 -0.399633
v -0.234184 0.270916 -0.383027
v -0.220642 0.270916 -0.364281
v -0.209892 0.270916 -0.343508
v -0.202059 0.270916 -0.320818
v -0.197267 0.270916 -0.296323
v -0.195642 0.270916 -0.270133
v -0.196170 0.270916 -0.251807
v -0.197781 0.270916 -0.234772
v -0.200517 0.270916 -0.218946
v -0.204420 0.270916 -0.204244
v -0.059642 0.270916 -0.155133
v -0.059091 0.270916 -0.163246
v -0.057489 0.270916 -0.171036
v -0.054907 0.270916 -0.178430
v -0.051419 0.270916 -0.185355
v -0.047098 0.270916 -0.191739
v -0.042017 0.270916 -0.197508
v -0.036248 0.270916 -0.202590
v -0.029864 0.270916 -0.206911
v -0.022939 0.270916 -0.210399
v -0.015545 0.270916 -0.212980
v -0.007755 0.270916 -0.214583
v 0.000358 0.270916 -0.215133
v 0.008471 0.270916 -0.214583
v 0.016261 0.270916 -0.212980
v 0.023655 0.270916 -0.210399
v 0.030581 0.270916 -0.206911
v 0.036964 0.270916 -0.202590
v 0.042733 0.270916 -0.197508
v 0.047815 0.270916 -0.191739
v 0.052136 0.270916 -0.185355
v 0.055624 0.270916 -0.178430
v 0.058205 0.270916 -0.171036
v 0.191358 0.270916 -0.419133
v 0.201575 0.270916 -0.423905
v 0.211756 0.270916 -0.428226
v 0.221952 0.270916 -0.432102
v 0.232210 0.270916 -0.435540
v 0.242579 0.270916 -0.438549
v 0.253108 0.270916 -0.441133
v 0.263845 0.270916 -0.443301
v 0.274840 0.270916 -0.445059
v 0.286139 0.270916 -0.446414
v 0.297793 0.270916 -0.447374
v 0.309850 0.270916 -0.447944
v 0.322358 0.270916 -0.448133
v 0.351941 0.270916 -0.446693
v -0.251771 0.270916 -0.102702
v -0.238642 0.270916 -0.092805
v -0.227012 0.270916 -0.081355
v -0.216855 0.270916 -0.068531
v -0.208142 0.270916 -0.054508
v -0.200846 0.270916 -0.039465
v -0.194938 0.270916 -0.023577
v -0.190392 0.270916 -0.007024
v -0.187179 0.270916 0.010020
v -0.185271 0.270916 0.027376
v -0.184642 0.270916 0.044867
v -0.186466 0.270916 0.074568
v -0.191818 0.270916 0.102561
v -0.059091 0.270916 0.183754
v -0.057489 0.270916 0.175964
v -0.054907 0.270916 0.168570
v -0.051419 0.270916 0.161645
v -0.047098 0.270916 0.155261
v -0.042017 0.270916 0.149492
v -0.036248 0.270916 0.144410
v -0.029864 0.270916 0.140089
v -0.022939 0.270916 0.136601
v -0.015545 0.270916 0.134020
v -0.007755 0.270916 0.132417
v 0.000358 0.270916 0.131867
v 0.008471 0.270916 0.132417
v 0.016261 0.270916 0.134020
v 0.023655 0.270916 0.136601
v 0.030581 0.270916 0.140089
v 0.036964 0.270916 0.144410
v 0.042733 0.270916 0.149492
v 0.047815 0.270916 0.155261
v 0.052136 0.270916 0.161645
v 0.055624 0.270916 0.168570
v 0.058205 0.270916 0.175964
v 0.059808 0.270916 0.183754
v 0.060358 0.270916 0.191867
v 0.174358 0.270916 0.106867
v 0.187318 0.270916 0.115243
v 0.200201 0.270916 0.122872
v 0.213014 0.270916 0.129758
v 0.225766 0.270916 0.135904
v 0.238461 0.270916 0.141314
v 0.251108 0.270916 0.145992
v 0.263713 0.270916 0.149940
v 0.276284 0.270916 0.153163
v 0.288827 0.270916 0.155664
v 0.301349 0.270916 0.157446
v 0.313857 0.270916 0.158512
v 0.326358 0.270916 0.158867
v 0.342597 0.270916 0.157983
v 0.357770 0.270916 0.155376
v 0.371811 0.270916 0.151117
v 0.384654 0.270916 0.145274
v 0.396234 0.270916 0.137918
v 0.406483 0.270916 0.129117
v 0.415337 0.270916 0.118941
v 0.422728 0.270916 0.107460
v 0.428592 0.270916 0.094742
v 0.432863 0.270916 0.080858
v 0.435473 0.270916 0.065876
v 0.436358 0.270916 0.049867
v 0.435338 0.270916 0.033454
v 0.432279 0.270916 0.017811
v 0.427186 0.270916 0.003086
v 0.420062 0.270916 -0.010577
v 0.410910 0.270916 -0.023032
v 0.399733 0.270916 -0.034133
v 0.386536 0.270916 -0.043734
v 0.371321 0.270916 -0.051689
v 0.354093 0.270916 -0.057852
v 0.334854 0.270916 -0.062077
v 0.313608 0.270916 -0.064220
v 0.290358 0.270916 -0.064133
v 0.290358 0.270916 -0.154133
v 0.311921 0.270916 -0.154897
v 0.331608 0.270916 -0.157161
v 0.349421 0.270916 -0.160883
v 0.365358 0.270916 -0.166022
v 0.379421 0.270916 -0.172536
v 0.391608 0.270916 -0.180383
v 0.401921 0.270916 -0.189522
v 0.410358 0.270916 -0.199911
v 0.416921 0.270916 -0.211508
v 0.421608 0.270916 -0.224272
v 0.424421 0.270916 -0.238161
v 0.425358 0.270916 -0.253133
v 0.424412 0.270916 -0.268374
v 0.421618 0.270916 -0.282564
v 0.417046 0.270916 -0.295649
v 0.410766 0.270916 -0.307577
v 0.402847 0.270916 -0.318298
v 0.393358 0.270916 -0.327758
v 0.382370 0.270916 -0.335906
v 0.369951 0.270916 -0.342689
v 0.356171 0.270916 -0.348055
v 0.341099 0.270916 -0.351952
v 0.324805 0.270916 -0.354329
v 0.307358 0.270916 -0.355133
v 0.298201 0.270916 -0.354963
v 0.289182 0.270916 -0.354443
v 0.280233 0.270916 -0.353555
v 0.271284 0.270916 -0.352281
v 0.262266 0.270916 -0.350605
v 0.253108 0.270916 -0.348508
v 0.243742 0.270916 -0.345974
v 0.234099 0.270916 -0.342985
v 0.224108 0.270916 -0.339524
v 0.213701 0.270916 -0.335573
v 0.202807 0.270916 -0.331115
v 0.191358 0.270916 -0.326133
v 0.059808 0.270916 -0.163246
v 0.060358 0.270916 -0.155133
v 0.059808 0.270916 -0.147020
v 0.058205 0.270916 -0.139230
v 0.055624 0.270916 -0.131836
v 0.052136 0.270916 -0.124911
v 0.047815 0.270916 -0.118527
v 0.042733 0.270916 -0.112758
v 0.036964 0.270916 -0.107676
v 0.030580 0.270916 -0.103355
v 0.023655 0.270916 -0.099867
v 0.016261 0.270916 -0.097286
v 0.008471 0.270916 -0.095683
v 0.000358 0.270916 -0.095133
v -0.007755 0.270916 -0.095683
v -0.015545 0.270916 -0.097286
v -0.022939 0.270916 -0.099867
v -0.029864 0.270916 -0.103355
v -0.036248 0.270916 -0.107676
v -0.042017 0.270916 -0.112758
v -0.047099 0.270916 -0.118527
v -0.051420 0.270916 -0.124911
v -0.054908 0.270916 -0.131836
v -0.057489 0.270916 -0.139230
v -0.059092 0.270916 -0.147020
v -0.209531 0.270916 -0.190584
v -0.215892 0.270916 -0.177883
v -0.223545 0.270916 -0.166057
v -0.232531 0.270916 -0.155022
v -0.242892 0.270916 -0.144696
v -0.254670 0.270916 -0.134994
v -0.267906 0.270916 -0.125834
v -0.282642 0.270916 -0.117133
v -0.266429 0.270916 -0.110871
v 0.322358 0.176152 -0.448133
v 0.309850 0.176152 -0.447944
v 0.351941 0.176152 -0.446693
v 0.297793 0.176152 -0.447374
v 0.379608 0.176155 -0.442448
v 0.286139 0.176152 -0.446414
v 0.405233 0.176155 -0.435508
v 0.274840 0.176155 -0.445059
v 0.428692 0.176152 -0.425985
v 0.253108 0.176152 -0.441133
v 0.263845 0.176155 -0.443301
v 0.449858 0.176152 -0.413990
v 0.221952 0.176155 -0.432102
v 0.242579 0.176155 -0.438549
v 0.468608 0.176152 -0.399633
v 0.201575 0.176152 -0.423905
v 0.232210 0.176152 -0.435540
v 0.211756 0.176152 -0.428226
v 0.484816 0.176155 -0.383027
v 0.253108 0.176152 -0.348508
v 0.191358 0.176152 -0.419133
v 0.498358 0.176155 -0.364281
v 0.271284 0.176155 -0.352281
v 0.243742 0.176152 -0.345974
v 0.262266 0.176152 -0.350605
v 0.234099 0.176152 -0.342985
v 0.509108 0.176152 -0.343508
v 0.298201 0.176155 -0.354963
v 0.280233 0.176155 -0.353555
v 0.191358 0.176152 -0.326133
v 0.224108 0.176155 -0.339524
v 0.516942 0.176152 -0.320818
v 0.324805 0.176152 -0.354329
v 0.289182 0.176152 -0.354443
v 0.307358 0.176152 -0.355133
v 0.202807 0.176152 -0.331115
v 0.213701 0.176152 -0.335573
v 0.521733 0.176152 -0.296323
v 0.369951 0.176152 -0.342689
v 0.341099 0.176152 -0.351952
v 0.523358 0.176152 -0.270133
v 0.402847 0.176155 -0.318298
v 0.356171 0.176152 -0.348055
v 0.382370 0.176152 -0.335906
v 0.522830 0.176152 -0.251807
v 0.417046 0.176152 -0.295649
v 0.393358 0.176152 -0.327758
v 0.410766 0.176155 -0.307577
v 0.521219 0.176152 -0.234772
v 0.424412 0.176152 -0.268374
v 0.421618 0.176152 -0.282564
v 0.518483 0.176152 -0.218946
v 0.424421 0.176152 -0.238161
v 0.425358 0.176152 -0.253133
v 0.514580 0.176155 -0.204244
v 0.421608 0.176152 -0.224272
v 0.509469 0.176152 -0.190584
v 0.416921 0.176152 -0.211508
v 0.503108 0.176152 -0.177883
v 0.410358 0.176152 -0.199911
v 0.495455 0.176152 -0.166057
v 0.401921 0.176152 -0.189522
v 0.486469 0.176155 -0.155022
v 0.379421 0.176152 -0.172536
v 0.391608 0.176152 -0.180383
v 0.476108 0.176152 -0.144696
v 0.365358 0.176155 -0.166022
v 0.464330 0.176155 -0.134994
v 0.311921 0.176152 -0.154897
v 0.349421 0.176152 -0.160883
v 0.451094 0.176152 -0.125834
v 0.290358 0.176152 -0.064133
v 0.331608 0.176152 -0.157161
v 0.290358 0.176152 -0.154133
v 0.436358 0.176152 -0.117133
v 0.452571 0.176155 -0.110871
v 0.467229 0.176152 -0.102702
v 0.313608 0.176152 -0.064220
v 0.480358 0.176152 -0.092805
v 0.502145 0.176152 -0.068531
v 0.334854 0.176152 -0.062077
v 0.491988 0.176152 -0.081355
v 0.510858 0.176152 -0.054508
v 0.354093 0.176152 -0.057852
v 0.371321 0.176152 -0.051689
v 0.518155 0.176152 -0.039465
v 0.386536 0.176152 -0.043734
v 0.524062 0.176152 -0.023577
v 0.399733 0.176152 -0.034133
v 0.528608 0.176152 -0.007024
v 0.410910 0.176152 -0.023032
v 0.531821 0.176152 0.010020
v 0.420062 0.176152 -0.010577
v 0.533728 0.176152 0.027376
v 0.427186 0.176152 0.003086
v 0.534358 0.176152 0.044867
v 0.432279 0.176152 0.017811
v 0.532534 0.176152 0.074568
v 0.435338 0.176152 0.033454
v 0.527182 0.176152 0.102561
v 0.436358 0.176152 0.049867
v 0.518483 0.176155 0.128679
v 0.432863 0.176152 0.080858
v 0.435473 0.176152 0.065876
v 0.506617 0.176152 0.152756
v 0.422728 0.176152 0.107460
v 0.428592 0.176155 0.094742
v 0.491766 0.176152 0.174624
v 0.406483 0.176152 0.129117
v 0.415337 0.176152 0.118941
v 0.474108 0.176155 0.194117
v 0.357770 0.176152 0.155376
v 0.396234 0.176152 0.137918
v 0.453826 0.176152 0.211068
v 0.174358 0.176152 0.212867
v 0.371811 0.176155 0.151117
v 0.342597 0.176152 0.157983
v 0.384654 0.176152 0.145274
v 0.431099 0.176152 0.225311
v 0.326358 0.176155 0.158867
v 0.406108 0.176152 0.236679
v 0.313857 0.176152 0.158512
v 0.379034 0.176152 0.245006
v 0.211077 0.176155 0.229508
v 0.186607 0.176155 0.218886
v 0.301349 0.176152 0.157446
v 0.350057 0.176152 0.250124
v 0.235463 0.176152 0.238171
v 0.198849 0.176152 0.224436
v 0.223284 0.176152 0.234089
v 0.288827 0.176152 0.155664
v 0.319358 0.176155 0.251867
v 0.271766 0.176152 0.247311
v 0.247608 0.176155 0.241742
v 0.174358 0.176152 0.106867
v 0.276284 0.176152 0.153163
v 0.307568 0.176152 0.251577
v 0.295701 0.176152 0.250714
v 0.259711 0.176152 0.244792
v 0.283764 0.176152 0.249289
v 0.187318 0.176152 0.115243
v 0.263713 0.176155 0.149940
v 0.200201 0.176152 0.122872
v 0.251108 0.176152 0.145992
v 0.213014 0.176152 0.129758
v 0.238461 0.176152 0.141314
v 0.225766 0.176152 0.135904
v 0.000358 0.176152 0.131867
v -0.007755 0.176152 0.132417
v 0.008471 0.176152 0.132417
v -0.015545 0.176152 0.134020
v 0.016261 0.176152 0.134020
v -0.022939 0.176152 0.136601
v 0.023655 0.176152 0.136601
v -0.029864 0.176152 0.140089
v 0.030581 0.176152 0.140089
v -0.036248 0.176152 0.144410
v 0.036964 0.176152 0.144410
v -0.042017 0.176152 0.149492
v 0.042733 0.176152 0.149492
v -0.047098 0.176152 0.155261
v 0.047815 0.176152 0.155261
v -0.051419 0.176152 0.161645
v 0.052136 0.176152 0.161645
v -0.054907 0.176152 0.168570
v 0.055624 0.176155 0.168570
v -0.057489 0.176152 0.175964
v 0.058205 0.176152 0.175964
v -0.059091 0.176152 0.183754
v 0.059808 0.176152 0.183754
v -0.059642 0.176152 0.191867
v 0.060358 0.176155 0.191867
v -0.059092 0.176155 0.199980
v 0.059808 0.176155 0.199980
v -0.057489 0.176152 0.207770
v 0.058205 0.176152 0.207770
v -0.054908 0.176155 0.215164
v 0.055624 0.176152 0.215164
v -0.051420 0.176152 0.222089
v 0.052136 0.176152 0.222089
v -0.047099 0.176152 0.228473
v 0.047815 0.176152 0.228473
v -0.042017 0.176152 0.234242
v 0.042733 0.176152 0.234242
v -0.036248 0.176155 0.239324
v 0.036964 0.176155 0.239324
v -0.029864 0.176152 0.243645
v 0.030580 0.176152 0.243645
v -0.022939 0.176152 0.247133
v 0.023655 0.176155 0.247133
v -0.015545 0.176152 0.249714
v 0.016261 0.176152 0.249714
v -0.007755 0.176152 0.251317
v 0.008471 0.176152 0.251317
v 0.000358 0.176152 0.251867
v 0.000358 0.176152 -0.215133
v -0.007755 0.176152 -0.214583
v 0.008471 0.176155 -0.214583
v 0.016261 0.176155 -0.212980
v -0.015545 0.176152 -0.212980
v -0.022939 0.176152 -0.210399
v 0.023655 0.176152 -0.210399
v -0.029864 0.176152 -0.206911
v 0.030581 0.176152 -0.206911
v -0.036248 0.176152 -0.202590
v 0.036964 0.176152 -0.202590
v -0.042017 0.176152 -0.197508
v 0.042733 0.176155 -0.197508
v -0.047098 0.176152 -0.191739
v 0.047815 0.176152 -0.191739
v -0.051419 0.176152 -0.185355
v 0.052136 0.176152 -0.185355
v -0.054907 0.176152 -0.178430
v 0.055624 0.176152 -0.178430
v -0.057489 0.176152 -0.171036
v 0.058205 0.176155 -0.171036
v -0.059091 0.176152 -0.163246
v 0.059808 0.176155 -0.163246
v -0.059642 0.176152 -0.155133
v 0.060358 0.176152 -0.155133
v -0.059092 0.176152 -0.147020
v 0.059808 0.176152 -0.147020
v -0.057489 0.176155 -0.139230
v 0.058205 0.176152 -0.139230
v -0.054908 0.176152 -0.131836
v 0.055624 0.176152 -0.131836
v -0.051420 0.176152 -0.124911
v 0.052136 0.176152 -0.124911
v -0.047099 0.176152 -0.118527
v 0.047815 0.176152 -0.118527
v -0.042017 0.176155 -0.112758
v 0.042733 0.176152 -0.112758
v -0.036248 0.176155 -0.107676
v 0.036964 0.176152 -0.107676
v -0.029864 0.176152 -0.103355
v 0.030580 0.176152 -0.103355
v -0.022939 0.176152 -0.099867
v 0.023655 0.176152 -0.099867
v -0.015545 0.176155 -0.097286
v 0.016261 0.176152 -0.097286
v -0.007755 0.176155 -0.095683
v 0.008471 0.176152 -0.095683
v 0.000358 0.176152 -0.095133
v -0.396642 0.176152 -0.448133
v -0.409150 0.176155 -0.447944
v -0.367058 0.176152 -0.446693
v -0.421207 0.176152 -0.447374
v -0.339392 0.176152 -0.442448
v -0.432861 0.176152 -0.446414
v -0.313767 0.176155 -0.435508
v -0.444160 0.176152 -0.445059
v -0.290309 0.176152 -0.425985
v -0.465892 0.176152 -0.441133
v -0.455155 0.176152 -0.443301
v -0.269142 0.176152 -0.413990
v -0.497048 0.176152 -0.432102
v -0.476421 0.176152 -0.438549
v -0.250392 0.176155 -0.399633
v -0.517425 0.176152 -0.423905
v -0.486790 0.176152 -0.435540
v -0.507244 0.176152 -0.428226
v -0.234184 0.176155 -0.383027
v -0.465892 0.176152 -0.348508
v -0.527642 0.176152 -0.419133
v -0.220642 0.176152 -0.364281
v -0.447716 0.176152 -0.352281
v -0.475258 0.176152 -0.345974
v -0.456734 0.176155 -0.350605
v -0.484901 0.176152 -0.342985
v -0.209892 0.176155 -0.343508
v -0.420799 0.176152 -0.354963
v -0.438767 0.176155 -0.353555
v -0.527642 0.176155 -0.326133
v -0.494892 0.176152 -0.339524
v -0.202059 0.176152 -0.320818
v -0.394195 0.176155 -0.354329
v -0.429818 0.176152 -0.354443
v -0.411642 0.176155 -0.355133
v -0.516193 0.176152 -0.331115
v -0.505299 0.176155 -0.335573
v -0.197267 0.176152 -0.296323
v -0.349049 0.176155 -0.342689
v -0.377901 0.176152 -0.351952
v -0.195642 0.176152 -0.270133
v -0.316153 0.176152 -0.318298
v -0.362829 0.176152 -0.348055
v -0.336630 0.176152 -0.335906
v -0.196170 0.176152 -0.251807
v -0.301954 0.176152 -0.295649
v -0.325642 0.176155 -0.327758
v -0.308234 0.176155 -0.307577
v -0.197781 0.176152 -0.234772
v -0.294589 0.176152 -0.268374
v -0.297383 0.176152 -0.282564
v -0.200517 0.176152 -0.218946
v -0.294579 0.176155 -0.238161
v -0.293642 0.176152 -0.253133
v -0.204420 0.176152 -0.204244
v -0.297392 0.176152 -0.224272
v -0.209531 0.176155 -0.190584
v -0.302079 0.176152 -0.211508
v -0.215892 0.176152 -0.177883
v -0.308642 0.176152 -0.199911
v -0.223545 0.176152 -0.166057
v -0.317079 0.176152 -0.189522
v -0.232531 0.176152 -0.155022
v -0.339579 0.176152 -0.172536
v -0.327392 0.176152 -0.180383
v -0.242892 0.176152 -0.144696
v -0.353642 0.176155 -0.166022
v -0.254670 0.176152 -0.134994
v -0.407079 0.176152 -0.154897
v -0.369579 0.176152 -0.160883
v -0.267906 0.176152 -0.125834
v -0.428642 0.176152 -0.064133
v -0.387392 0.176152 -0.157161
v -0.428642 0.176152 -0.154133
v -0.282642 0.176152 -0.117133
v -0.266429 0.176152 -0.110871
v -0.251771 0.176152 -0.102702
v -0.405392 0.176152 -0.064220
v -0.238642 0.176152 -0.092805
v -0.216855 0.176152 -0.068531
v -0.384146 0.176152 -0.062077
v -0.227012 0.176152 -0.081355
v -0.208142 0.176152 -0.054508
v -0.364907 0.176152 -0.057852
v -0.347679 0.176152 -0.051689
v -0.200846 0.176152 -0.039465
v -0.332464 0.176152 -0.043734
v -0.194938 0.176152 -0.023577
v -0.319267 0.176155 -0.034133
v -0.190392 0.176152 -0.007024
v -0.308090 0.176152 -0.023032
v -0.187179 0.176152 0.010020
v -0.298938 0.176152 -0.010577
v -0.185271 0.176155 0.027376
v -0.291814 0.176152 0.003086
v -0.184642 0.176152 0.044867
v -0.286721 0.176155 0.017811
v -0.186466 0.176152 0.074568
v -0.283662 0.176152 0.033454
v -0.191818 0.176152 0.102561
v -0.282642 0.176152 0.049867
v -0.200517 0.176152 0.128679
v -0.286137 0.176152 0.080858
v -0.283527 0.176152 0.065876
v -0.212383 0.176152 0.152756
v -0.296271 0.176152 0.107460
v -0.290407 0.176152 0.094742
v -0.227234 0.176152 0.174624
v -0.312517 0.176152 0.129117
v -0.303663 0.176152 0.118941
v -0.244892 0.176152 0.194117
v -0.361230 0.176152 0.155376
v -0.322766 0.176155 0.137918
v -0.265174 0.176152 0.211068
v -0.544642 0.176152 0.212867
v -0.347189 0.176152 0.151117
v -0.376403 0.176155 0.157983
v -0.334346 0.176152 0.145274
v -0.287901 0.176152 0.225311
v -0.392642 0.176152 0.158867
v -0.312892 0.176152 0.236679
v -0.405143 0.176155 0.158512
v -0.339966 0.176152 0.245006
v -0.507923 0.176152 0.229508
v -0.532393 0.176152 0.218886
v -0.417651 0.176152 0.157446
v -0.368943 0.176152 0.250124
v -0.483537 0.176152 0.238171
v -0.520151 0.176155 0.224436
v -0.495716 0.176152 0.234089
v -0.430173 0.176152 0.155664
v -0.399642 0.176152 0.251867
v -0.447234 0.176152 0.247311
v -0.471392 0.176152 0.241742
v -0.544642 0.176152 0.106867
v -0.442716 0.176152 0.153163
v -0.411432 0.176152 0.251577
v -0.423299 0.176152 0.250714
v -0.459289 0.176152 0.244792
v -0.435236 0.176155 0.249289
v -0.531682 0.176155 0.115243
v -0.455287 0.176152 0.149940
v -0.518799 0.176152 0.122872
v -0.467892 0.176152 0.145992
v -0.505986 0.176152 0.129758
v -0.480539 0.176152 0.141314
v -0.493234 0.176152 0.135904
vn 0.000000 -1.000000 0.000000
vn 0.000000 0.000000 -1.000000
vn 1.000000 0.000000 0.000000
vn -0.000000 -0.000000 1.000000
vn -1.000000 -0.000000 -0.000000
vn 0.000000 1.000000 -0.000000
vn 0.015100 0.000000 0.999900
vn -0.048600 0.000000 0.998800
vn 0.047300 0.000000 0.998900
vn -0.151700 0.000000 0.988400
vn 0.082100 0.000000 0.996600
vn -0.261400 0.000000 0.965200
vn -0.000000 1.000000 -0.000700
vn 0.119100 0.000000 0.992900
vn -0.376100 0.000000 0.926600
vn -0.000000 1.000000 0.000100
vn 0.000000 1.000000 -0.001900
vn 0.157900 0.000000 0.987500
vn -0.493000 0.000000 0.870000
vn 0.000000 1.000000 0.000300
vn -0.000000 1.000000 0.001400
vn 0.000000 1.000000 -0.001100
vn 0.197900 0.000000 0.980200
vn -0.607900 0.000000 0.794000
vn -0.000000 1.000000 -0.000900
vn -0.000000 1.000000 0.000800
vn 0.238400 0.000000 0.971200
vn -0.000000 1.000000 0.001000
vn -0.715600 0.000000 0.698500
vn 0.317800 0.000000 0.948100
vn 0.355400 0.000000 0.934700
vn 0.278600 0.000000 0.960400
vn -0.810600 0.000000 0.585600
vn -0.000000 1.000000 -0.000200
vn 0.000000 1.000000 0.000200
vn 0.390600 0.000000 0.920500
vn 0.423200 0.000000 0.906000
vn -0.888100 0.000000 0.459600
vn -0.001500 1.000000 -0.006500
vn 0.000000 1.000000 0.001500
vn -0.261200 0.000000 -0.965300
vn -0.223200 0.000000 -0.974800
vn 0.000300 1.000000 -0.000100
vn -0.945300 0.000000 0.326300
vn -0.000500 1.000000 -0.003600
vn 0.000600 0.999900 0.011800
vn -0.182800 0.000000 -0.983200
vn 0.001100 1.000000 0.007600
vn -0.140900 0.000000 -0.990000
vn -0.296100 0.000000 -0.955200
vn -0.399000 0.000000 -0.916900
vn -0.000300 1.000000 0.000100
vn -0.327400 0.000000 -0.944900
vn -0.981400 0.000000 0.192000
vn -0.057600 0.000000 -0.998300
vn -0.018500 0.000000 -0.999800
vn -0.098800 0.000000 -0.995100
vn -0.378700 0.000000 -0.925500
vn -0.354900 0.000000 -0.934900
vn -0.998100 0.000000 0.061900
vn 0.046000 0.000000 -0.998900
vn 0.144300 0.000000 -0.989500
vn -0.999600 0.000000 -0.028800
vn 0.000000 1.000000 -0.000300
vn 0.362900 0.000000 -0.931800
vn 0.479300 0.000000 -0.877600
vn 0.250400 0.000000 -0.968200
vn -0.995600 0.000000 -0.094200
vn 0.706000 0.000000 -0.708200
vn 0.804400 0.000000 -0.594200
vn 0.595600 0.000000 -0.803300
vn -0.985400 0.000000 -0.170400
vn 0.884900 0.000000 -0.465800
vn 0.944000 0.000000 -0.329800
vn -0.966500 0.000000 -0.256600
vn 0.981200 0.000000 -0.193200
vn 0.998100 0.000000 -0.062000
vn -0.936600 0.000000 -0.350400
vn 0.998000 0.000000 0.062500
vn 0.980100 0.000000 0.198500
vn -0.894100 0.000000 -0.447800
vn 0.938700 0.000000 0.344700
vn -0.839600 0.000000 -0.543300
vn 0.870300 0.000000 0.492500
vn -0.775400 0.000000 -0.631500
vn 0.776200 0.000000 0.630400
vn -0.705900 0.000000 -0.708300
vn 0.000000 1.000000 -0.000400
vn 0.663200 0.000000 0.748400
vn -0.635800 0.000000 -0.771900
vn -0.000000 1.000000 0.000500
vn 0.541400 0.000000 0.840800
vn 0.420300 0.000000 0.907400
vn -0.569100 0.000000 -0.822300
vn -0.000300 1.000000 -0.000700
vn -0.000000 1.000000 -0.000100
vn 0.306900 0.000000 0.951700
vn -0.508500 0.000000 -0.861100
vn 0.000300 1.000000 0.000800
vn 0.114200 0.000000 0.993500
vn 0.035400 0.000000 0.999400
vn 0.204500 0.000000 0.978900
vn -0.360300 0.000000 0.932800
vn -0.486800 0.000000 0.873500
vn -0.000100 1.000000 -0.000200
vn -0.003700 0.000000 -1.000000
vn -0.602000 0.000000 0.798500
vn 0.000100 1.000000 0.000300
vn 0.100300 0.000000 -0.995000
vn -0.701600 0.000000 0.712600
vn 0.214500 0.000000 -0.976700
vn -0.783900 0.000000 0.620900
vn -0.849400 0.000000 0.527800
vn 0.336800 0.000000 -0.941600
vn -0.899800 0.000000 0.436400
vn 0.463300 0.000000 -0.886200
vn -0.937300 0.000000 0.348500
vn 0.588300 0.000000 -0.808700
vn -0.964300 0.000000 0.264800
vn 0.704700 0.000000 -0.709500
vn -0.982700 0.000000 0.185300
vn 0.805800 0.000000 -0.592100
vn -0.994000 0.000000 0.109200
vn 0.886700 0.000000 -0.462400
vn -0.999400 0.000000 0.036000
vn 0.945100 0.000000 -0.326900
vn -0.998100 0.000000 -0.061300
vn 0.981400 0.000000 -0.191900
vn -0.982200 0.000000 -0.187800
vn -0.948800 0.000000 -0.316000
vn 0.998500 0.000000 0.055200
vn -0.897000 0.000000 -0.442100
vn 0.985200 0.000000 0.171700
vn -0.827300 0.000000 -0.561800
vn 0.955800 0.000000 0.294000
vn -0.741100 0.000000 -0.671300
vn 0.908100 0.000000 0.418700
vn 0.840800 0.000000 0.541300
vn -0.641300 0.000000 -0.767300
vn 0.754400 0.000000 0.656400
vn 0.651500 0.000000 0.758700
vn -0.531000 0.000000 -0.847300
vn 0.290300 0.000000 0.956900
vn 0.000000 1.000000 -0.000500
vn 0.169300 0.000000 0.985600
vn 0.000100 1.000000 -0.001100
vn 0.536200 0.000000 0.844100
vn -0.414100 0.000000 -0.910200
vn -0.000200 1.000000 -0.000600
vn 0.414100 0.000000 0.910200
vn 0.054400 0.000000 0.998500
vn -0.294000 0.000000 -0.955800
vn 0.000000 1.000000 -0.000600
vn -0.028400 0.000000 0.999600
vn -0.173900 0.000000 -0.984800
vn -0.000000 1.000000 0.000700
vn 0.441000 0.000000 -0.897500
vn -0.000000 1.000000 0.000600
vn -0.085000 0.000000 0.996400
vn -0.056700 0.000000 -0.998400
vn 0.000000 1.000000 -0.001000
vn 0.383100 0.000000 -0.923700
vn 0.351400 0.000000 -0.936200
vn 0.412900 0.000000 -0.910800
vn -0.140900 0.000000 0.990000
vn 0.024600 0.000000 -0.999700
vn -0.000000 1.000000 -0.002200
vn 0.317800 0.000000 -0.948200
vn 0.282100 0.000000 -0.959400
vn -0.542800 0.000000 0.839900
vn 0.000200 1.000000 0.000300
vn -0.195500 0.000000 0.980700
vn 0.072500 0.000000 -0.997400
vn -0.000400 1.000000 0.005400
vn 0.204600 0.000000 -0.978900
vn 0.162600 0.000000 -0.986700
vn 0.244400 0.000000 -0.969700
vn -0.509500 0.000000 0.860400
vn -0.000200 1.000000 -0.000200
vn -0.248300 0.000000 0.968700
vn 0.118600 0.000000 -0.992900
vn -0.473400 0.000000 0.880900
vn -0.298900 0.000000 0.954300
vn -0.434200 0.000000 0.900800
vn -0.346900 0.000000 0.937900
vn -0.392000 0.000000 0.919900
vn 0.067700 0.000000 0.997700
vn -0.067700 0.000000 0.997700
vn 0.201500 0.000000 0.979500
vn -0.201500 0.000000 0.979500
vn 0.329600 0.000000 0.944100
vn -0.329600 0.000000 0.944100
vn 0.449800 0.000000 0.893100
vn -0.449800 0.000000 0.893100
vn 0.560600 0.000000 0.828100
vn -0.560600 0.000000 0.828100
vn 0.661000 0.000000 0.750400
vn -0.661000 0.000000 0.750400
vn 0.750400 0.000000 0.661000
vn -0.750400 0.000000 0.661000
vn 0.828100 0.000000 0.560600
vn -0.828100 0.000000 0.560600
vn 0.893100 0.000000 0.449800
vn -0.893100 0.000000 0.449800
vn 0.944100 0.000000 0.329600
vn -0.944100 0.000000 0.329600
vn 0.979500 0.000000 0.201500
vn -0.979500 0.000000 0.201500
vn 0.000000 1.000000 0.000400
vn 0.997700 0.000000 0.067700
vn -0.997700 0.000000 0.067700
vn 0.997700 0.000000 -0.067700
vn -0.997700 0.000000 -0.067700
vn 0.979500 0.000000 -0.201500
vn -0.979500 0.000000 -0.201500
vn 0.944100 0.000000 -0.329600
vn -0.944100 0.000000 -0.329600
vn 0.893100 0.000000 -0.449800
vn -0.893100 0.000000 -0.449800
vn 0.828100 0.000000 -0.560600
vn -0.828100 0.000000 -0.560600
vn 0.750400 0.000000 -0.661000
vn -0.750400 0.000000 -0.661000
vn 0.661000 0.000000 -0.750400
vn -0.661000 0.000000 -0.750400
vn 0.560600 0.000000 -0.828100
vn -0.560600 0.000000 -0.828100
vn 0.449800 0.000000 -0.893100
vn -0.449800 0.000000 -0.893100
vn 0.329600 0.000000 -0.944100
vn -0.329600 0.000000 -0.944100
vn -0.000100 1.000000 -0.001000
vn -0.000100 1.000000 0.000200
vn 0.201500 0.000000 -0.979500
vn -0.201500 0.000000 -0.979500
vn 0.000000 1.000000 0.001200
vn 0.067700 0.000000 -0.997700
vn -0.067700 0.000000 -0.997700
vn -0.000200 1.000000 -0.002800
vn -0.000200 1.000000 0.000900
vn -0.000100 1.000000 -0.000500
vn -0.000100 1.000000 0.001500
vn 0.000100 1.000000 -0.001500
vn 0.000100 1.000000 0.000500
vn 0.000200 1.000000 -0.000900
vn 0.000200 1.000000 0.002800
vn 0.000200 1.000000 -0.003800
vn -0.000100 1.000000 0.004200
vn -0.009100 0.999200 -0.038200
vn 0.001500 1.000000 0.006500
vn -0.027900 0.980600 -0.193900
vn -0.000600 0.999900 -0.011900
vn 0.000300 1.000000 -0.000000
vn -0.000100 1.000000 0.002100
vn -0.000300 1.000000 0.000000
vn -0.000100 1.000000 0.000600
vn 0.000100 1.000000 -0.000300
vn 0.000100 1.000000 -0.000600
vn -0.000100 1.000000 0.001300
vn 0.000200 1.000000 0.000600
vn -0.000200 1.000000 -0.000500
vn 0.000100 1.000000 -0.002000
vn -0.000200 1.000000 0.000000
vn 0.000000 1.000000 0.001900
vn 0.000200 1.000000 0.000100
s off
f 1//1 2//1 3//1 4//1
f 5//2 1//2 4//2 6//2
f 1//3 5//3 7//3 2//3
f 2//4 7//4 8//4 3//4
f 3//5 8//5 6//5 4//5
f 9//6 10//6 8//6 7//6 5//6 11//6 12//6 13//6 14//6 15//6 16//6 17//6 18//6 19//6 20//6 21//6 22//6 23//6 24//6 25//6 26//6 27//6 28//6 29//6 30//6 31//6 32//6 33//6 34//6 35//6 36//6 37//6 38//6 39//6 40//6 41//6 42//6 43//6 44//6 45//6 46//6 47//6 48//6 49//6 50//6 51//6 52//6 53//6 54//6 55//6 56//6 57//6 58//6 59//6 60//6 61//6 62//6 63//6 64//6 65//6 66//6 67//6 68//6 69//6 70//6 71//6 72//6 73//6 74//6 75//6 76//6 77//6 78//6 79//6 80//6 81//6 82//6 83//6 84//6 85//6 86//6 87//6 88//6 89//6 90//6 91//6 92//6 93//6 94//6 95//6 96//6 97//6 98//6 99//6 100//6 101//6 102//6 103//6 104//6 105//6 106//6 107//6 108//6 109//6 110//6 111//6 112//6 113//6
f 10//6 114//6 115//6 116//6 117//6 118//6 119//6 120//6 121//6 122//6 123//6 124//6 125//6 126//6 127//6 128//6 129//6 130//6 131//6 132//6 133//6 134//6 135//6 136//6 137//6 138//6 139//6 140//6 141//6 142//6 143//6 144//6 145//6 146//6 147//6 148//6 149//6 150//6 151//6 152//6 153//6 154//6 155//6 156//6 157//6 158//6 159//6 160//6 161//6 162//6 163//6 164//6 165//6 166//6 167//6 168//6 169//6 170//6 171//6 172//6 173//6 174//6 175//6 176//6 177//6 178//6 179//6 180//6 181//6 182//6 183//6 184//6 185//6 186//6 187//6 188//6 189//6 190//6 191//6 192//6 193//6 194//6 195//6 196//6 197//6 198//6 199//6 200//6 201//6 202//6 203//6 204//6 205//6 206//6 207//6 208//6 209//6 210//6 211//6 212//6 213//6 214//6 215//6 216//6 217//6 218//6 219//6 220//6 221//6 222//6 223//6 224//6 225//6 226//6 227//6 228//6 229//6 230//6 231//6 232//6 233//6 234//6 235//6 236//6 237//6 238//6 239//6 240//6 241//6 242//6 243//6 244//6 245//6 246//6 247//6 248//6 249//6 250//6 251//6 252//6 253//6 11//6 5//6 6//6 8//6
f 254//6 255//6 256//6 257//6 258//6 259//6 260//6 261//6 262//6 263//6 264//6 265//6 266//6 94//6 93//6 267//6 268//6 269//6 270//6 271//6 272//6 273//6 274//6 275//6 276//6 277//6 278//6 279//6 280//6 281//6 282//6 283//6 284//6 285//6 286//6 287//6 288//6 289//6 290//6 70//6 69//6 291//6 292//6 293//6 294//6 295//6 296//6 297//6 298//6 299//6 300//6 301//6 302//6 303//6 304//6 305//6 306//6 307//6 308//6 309//6 310//6 311//6 312//6 313//6 314//6 315//6 316//6 317//6 318//6 319//6 320//6 321//6 322//6 323//6 324//6 325//6 326//6 327//6 328//6 329//6 330//6 331//6 332//6 333//6 334//6 335//6 336//6 337//6 338//6 339//6 340//6 341//6 342//6 343//6 344//6 345//6 346//6 347//6 348//6 349//6 350//6 351//6 352//6 353//6 354//6 355//6 356//6 357//6 358//6 359//6 360//6 361//6 362//6 363//6 364//6 240//6 239//6 365//6 366//6 367//6 368//6 369//6 370//6 371//6 372//6 373//6 374//6 375//6 376//6 377//6 378//6 379//6 380//6 381//6 382//6 383//6 384//6 385//6 386//6 387//6 388//6 389//6 217//6 216//6 390//6 391//6 392//6 393//6 394//6 395//6 396//6 397//6 398//6
f 399//6 400//6 401//6
f 252//7 251//7 400//7 399//7
f 253//8 252//8 399//8 401//8
f 400//6 402//6 401//6
f 251//9 250//9 402//9 400//9
f 11//10 253//10 401//10 403//10
f 402//6 404//6 401//6
f 250//11 249//11 404//11 402//11
f 12//12 11//12 403//12 405//12
f 401//13 404//13 403//13
f 249//14 248//14 406//14 404//14
f 13//15 12//15 405//15 407//15
f 403//16 408//16 405//16
f 404//17 406//17 403//17
f 248//18 247//18 409//18 406//18
f 14//19 13//19 407//19 410//19
f 405//20 411//20 407//20
f 409//21 408//21 403//21
f 408//22 412//22 405//22
f 406//6 409//6 403//6
f 247//23 246//23 408//23 409//23
f 15//24 14//24 410//24 413//24
f 407//6 414//6 410//6
f 415//25 411//25 405//25
f 411//26 416//26 407//26
f 246//27 245//27 412//27 408//27
f 412//28 415//28 405//28
f 16//29 15//29 413//29 417//29
f 410//6 418//6 413//6
f 416//6 414//6 407//6
f 414//6 419//6 410//6
f 244//30 243//30 411//30 415//30
f 243//31 242//31 416//31 411//31
f 245//32 244//32 415//32 412//32
f 17//33 16//33 417//33 420//33
f 413//34 421//34 417//34
f 410//6 422//6 418//6
f 413//35 418//35 423//35
f 242//36 241//36 414//36 416//36
f 241//37 240//37 419//37 414//37
f 419//6 424//6 410//6
f 18//38 17//38 420//38 425//38
f 417//6 426//6 420//6
f 413//39 423//39 421//39
f 417//40 421//40 427//40
f 410//6 424//6 422//6
f 359//41 358//41 418//41 422//41
f 358//42 357//42 423//42 418//42
f 240//3 364//3 428//3 419//3
f 419//43 429//43 424//43
f 19//44 18//44 425//44 430//44
f 420//16 431//16 425//16
f 417//45 432//45 426//45
f 420//46 426//46 433//46
f 357//47 356//47 421//47 423//47
f 417//48 427//48 432//48
f 356//49 355//49 427//49 421//49
f 360//50 359//50 422//50 424//50
f 419//6 428//6 434//6
f 364//51 363//51 434//51 428//51
f 419//52 435//52 429//52
f 361//53 360//53 424//53 429//53
f 20//54 19//54 430//54 436//54
f 425//6 437//6 430//6
f 420//35 433//35 431//35
f 431//6 438//6 425//6
f 354//55 353//55 426//55 432//55
f 353//56 352//56 433//56 426//56
f 355//57 354//57 432//57 427//57
f 419//6 434//6 435//6
f 363//58 362//58 435//58 434//58
f 362//59 361//59 429//59 435//59
f 21//60 20//60 436//60 439//60
f 430//6 440//6 436//6
f 441//6 437//6 425//6
f 437//6 442//6 430//6
f 352//61 351//61 431//61 433//61
f 351//62 350//62 438//62 431//62
f 438//6 441//6 425//6
f 22//63 21//63 439//63 443//63
f 436//6 444//6 439//6
f 445//64 440//64 430//64
f 440//6 446//6 436//6
f 349//65 348//65 437//65 441//65
f 348//66 347//66 442//66 437//66
f 442//6 445//6 430//6
f 350//67 349//67 441//67 438//67
f 23//68 22//68 443//68 447//68
f 439//6 448//6 443//6
f 446//20 444//20 436//20
f 444//6 449//6 439//6
f 346//69 345//69 440//69 445//69
f 345//70 344//70 446//70 440//70
f 347//71 346//71 445//71 442//71
f 24//72 23//72 447//72 450//72
f 443//6 451//6 447//6
f 449//6 448//6 439//6
f 448//6 452//6 443//6
f 344//73 343//73 444//73 446//73
f 343//74 342//74 449//74 444//74
f 25//75 24//75 450//75 453//75
f 447//6 454//6 450//6
f 452//6 451//6 443//6
f 451//6 454//6 447//6
f 342//76 341//76 448//76 449//76
f 341//77 340//77 452//77 448//77
f 26//78 25//78 453//78 455//78
f 450//34 456//34 453//34
f 454//6 456//6 450//6
f 340//79 339//79 451//79 452//79
f 339//80 338//80 454//80 451//80
f 27//81 26//81 455//81 457//81
f 453//35 458//35 455//35
f 456//6 458//6 453//6
f 338//82 337//82 456//82 454//82
f 28//83 27//83 457//83 459//83
f 455//6 460//6 457//6
f 458//6 460//6 455//6
f 337//84 336//84 458//84 456//84
f 29//85 28//85 459//85 461//85
f 457//6 462//6 459//6
f 460//6 463//6 457//6
f 336//86 335//86 460//86 458//86
f 30//87 29//87 461//87 464//87
f 459//64 465//64 461//64
f 463//6 462//6 457//6
f 462//88 465//88 459//88
f 335//89 334//89 463//89 460//89
f 31//90 30//90 464//90 466//90
f 461//20 467//20 464//20
f 465//91 468//91 461//91
f 334//92 333//92 462//92 463//92
f 333//93 332//93 465//93 462//93
f 32//94 31//94 466//94 469//94
f 464//95 470//95 466//95
f 471//96 467//96 461//96
f 467//6 472//6 464//6
f 332//97 331//97 468//97 465//97
f 468//96 471//96 461//96
f 33//98 32//98 469//98 473//98
f 466//99 470//99 469//99
f 472//6 470//6 464//6
f 330//100 329//100 467//100 471//100
f 329//101 328//101 472//101 467//101
f 331//102 330//102 471//102 468//102
f 34//103 33//103 473//103 474//103
f 469//6 470//6 473//6
f 328//3 327//3 470//3 472//3
f 35//104 34//104 474//104 475//104
f 473//105 470//105 474//105
f 327//106 326//106 476//106 470//106
f 36//107 35//107 475//107 477//107
f 474//108 470//108 475//108
f 478//6 470//6 476//6
f 326//109 325//109 479//109 476//109
f 37//110 36//110 477//110 480//110
f 475//6 470//6 477//6
f 480//6 470//6 478//6
f 478//6 476//6 481//6
f 476//6 479//6 481//6
f 325//111 324//111 482//111 479//111
f 38//112 37//112 480//112 478//112
f 477//6 470//6 480//6
f 39//113 38//113 478//113 481//113
f 479//6 482//6 481//6
f 324//114 323//114 483//114 482//114
f 40//115 39//115 481//115 484//115
f 482//6 483//6 481//6
f 323//116 322//116 485//116 483//116
f 41//117 40//117 484//117 486//117
f 481//6 483//6 484//6
f 483//6 485//6 484//6
f 322//118 321//118 487//118 485//118
f 42//119 41//119 486//119 488//119
f 484//6 487//6 486//6
f 485//6 487//6 484//6
f 321//120 320//120 489//120 487//120
f 43//121 42//121 488//121 490//121
f 486//6 489//6 488//6
f 487//6 489//6 486//6
f 320//122 319//122 491//122 489//122
f 44//123 43//123 490//123 492//123
f 488//6 493//6 490//6
f 489//6 491//6 488//6
f 319//124 318//124 493//124 491//124
f 45//125 44//125 492//125 494//125
f 490//6 495//6 492//6
f 491//6 493//6 488//6
f 493//6 495//6 490//6
f 318//126 317//126 495//126 493//126
f 46//127 45//127 494//127 496//127
f 492//6 497//6 494//6
f 495//6 497//6 492//6
f 317//128 316//128 497//128 495//128
f 47//129 46//129 496//129 498//129
f 494//6 499//6 496//6
f 497//6 499//6 494//6
f 316//77 315//77 499//77 497//77
f 48//130 47//130 498//130 500//130
f 496//6 501//6 498//6
f 499//6 502//6 496//6
f 315//131 314//131 502//131 499//131
f 49//132 48//132 500//132 503//132
f 498//96 504//96 500//96
f 502//6 501//6 496//6
f 501//34 505//34 498//34
f 314//133 313//133 501//133 502//133
f 50//134 49//134 503//134 506//134
f 500//16 507//16 503//16
f 505//35 504//35 498//35
f 504//6 508//6 500//6
f 313//135 312//135 505//135 501//135
f 51//136 50//136 506//136 509//136
f 503//6 510//6 506//6
f 508//6 507//6 500//6
f 507//6 511//6 503//6
f 312//137 311//137 504//137 505//137
f 311//138 310//138 508//138 504//138
f 52//139 51//139 509//139 512//139
f 506//34 513//34 509//34
f 514//26 510//26 503//26
f 510//6 515//6 506//6
f 310//140 309//140 507//140 508//140
f 309//141 308//141 511//141 507//141
f 511//6 516//6 503//6
f 53//142 52//142 512//142 517//142
f 509//35 513//35 512//35
f 518//16 513//16 506//16
f 306//143 305//143 510//143 514//143
f 516//144 514//144 503//144
f 305//145 304//145 515//145 510//145
f 515//146 518//146 506//146
f 308//147 307//147 516//147 511//147
f 54//148 53//148 517//148 519//148
f 512//6 513//6 517//6
f 520//149 513//149 518//149
f 307//150 306//150 514//150 516//150
f 304//151 303//151 518//151 515//151
f 55//152 54//152 519//152 521//152
f 517//6 522//6 519//6
f 513//153 523//153 517//153
f 524//6 513//6 520//6
f 303//154 302//154 520//154 518//154
f 56//155 55//155 521//155 525//155
f 519//6 526//6 521//6
f 527//153 522//153 517//153
f 522//156 528//156 519//156
f 69//157 68//157 523//157 513//157
f 523//158 527//158 517//158
f 529//6 513//6 524//6
f 302//159 301//159 524//159 520//159
f 57//160 56//160 525//160 530//160
f 521//6 531//6 525//6
f 528//6 526//6 519//6
f 526//161 532//161 521//161
f 67//162 66//162 522//162 527//162
f 66//163 65//163 528//163 522//163
f 291//3 69//3 513//3 533//3
f 68//164 67//164 527//164 523//164
f 534//6 513//6 529//6
f 301//165 300//165 529//165 524//165
f 58//166 57//166 530//166 535//166
f 525//167 536//167 530//167
f 537//6 531//6 521//6
f 531//6 538//6 525//6
f 65//168 64//168 526//168 528//168
f 64//169 63//169 532//169 526//169
f 532//28 537//28 521//28
f 292//170 291//170 533//170 539//170
f 533//6 513//6 539//6
f 540//171 513//171 534//171
f 300//172 299//172 534//172 529//172
f 59//173 58//173 535//173 536//173
f 536//174 535//174 530//174
f 538//6 536//6 525//6
f 62//175 61//175 531//175 537//175
f 61//176 60//176 538//176 531//176
f 63//177 62//177 537//177 532//177
f 293//178 292//178 539//178 541//178
f 539//6 513//6 541//6
f 542//179 513//179 540//179
f 299//180 298//180 540//180 534//180
f 60//181 59//181 536//181 538//181
f 294//182 293//182 541//182 543//182
f 541//6 513//6 543//6
f 544//6 513//6 542//6
f 298//183 297//183 542//183 540//183
f 295//184 294//184 543//184 545//184
f 543//6 513//6 545//6
f 545//6 513//6 544//6
f 297//185 296//185 544//185 542//185
f 296//186 295//186 545//186 544//186
f 546//96 547//96 548//96
f 278//187 277//187 547//187 546//187
f 279//188 278//188 546//188 548//188
f 547//6 549//6 548//6
f 277//189 276//189 549//189 547//189
f 280//190 279//190 548//190 550//190
f 548//6 549//6 550//6
f 276//191 275//191 551//191 549//191
f 281//192 280//192 550//192 552//192
f 549//6 551//6 550//6
f 275//193 274//193 553//193 551//193
f 282//194 281//194 552//194 554//194
f 550//6 551//6 552//6
f 551//6 553//6 552//6
f 274//195 273//195 555//195 553//195
f 283//196 282//196 554//196 556//196
f 552//6 553//6 554//6
f 553//6 555//6 554//6
f 273//197 272//197 557//197 555//197
f 284//198 283//198 556//198 558//198
f 554//6 555//6 556//6
f 555//6 557//6 556//6
f 272//199 271//199 559//199 557//199
f 285//200 284//200 558//200 560//200
f 556//6 557//6 558//6
f 557//6 559//6 558//6
f 271//201 270//201 561//201 559//201
f 286//202 285//202 560//202 562//202
f 558//6 559//6 560//6
f 559//6 561//6 560//6
f 270//203 269//203 563//203 561//203
f 287//204 286//204 562//204 564//204
f 560//6 561//6 562//6
f 561//6 563//6 562//6
f 269//205 268//205 565//205 563//205
f 288//206 287//206 564//206 566//206
f 562//88 563//88 564//88
f 563//6 565//6 564//6
f 268//207 267//207 567//207 565//207
f 289//208 288//208 566//208 568//208
f 564//209 565//209 566//209
f 565//6 567//6 566//6
f 267//210 93//210 569//210 567//210
f 290//211 289//211 568//211 570//211
f 566//6 567//6 568//6
f 567//6 569//6 570//6
f 93//212 92//212 571//212 569//212
f 70//213 290//213 570//213 572//213
f 568//88 567//88 570//88
f 569//88 571//88 570//88
f 92//214 91//214 573//214 571//214
f 71//215 70//215 572//215 574//215
f 570//6 571//6 572//6
f 571//209 573//209 572//209
f 91//216 90//216 575//216 573//216
f 72//217 71//217 574//217 576//217
f 572//209 573//209 574//209
f 573//88 575//88 574//88
f 90//218 89//218 577//218 575//218
f 73//219 72//219 576//219 578//219
f 574//6 575//6 576//6
f 575//209 577//209 576//209
f 89//220 88//220 579//220 577//220
f 74//221 73//221 578//221 580//221
f 576//6 577//6 578//6
f 577//6 579//6 578//6
f 88//222 87//222 581//222 579//222
f 75//223 74//223 580//223 582//223
f 578//6 579//6 580//6
f 579//6 581//6 580//6
f 87//224 86//224 583//224 581//224
f 76//225 75//225 582//225 584//225
f 580//6 581//6 582//6
f 581//153 583//153 582//153
f 86//226 85//226 585//226 583//226
f 77//227 76//227 584//227 586//227
f 582//153 583//153 584//153
f 583//156 585//156 584//156
f 85//228 84//228 587//228 585//228
f 78//229 77//229 586//229 588//229
f 584//156 585//156 586//156
f 585//6 587//6 586//6
f 84//230 83//230 589//230 587//230
f 79//231 78//231 588//231 590//231
f 586//232 587//232 588//232
f 587//233 589//233 588//233
f 83//234 82//234 591//234 589//234
f 80//235 79//235 590//235 592//235
f 588//236 589//236 590//236
f 589//6 591//6 590//6
f 82//237 81//237 593//237 591//237
f 81//238 80//238 592//238 593//238
f 590//6 591//6 592//6
f 591//6 593//6 592//6
f 594//239 595//239 596//239
f 229//187 228//187 595//187 594//187
f 230//188 229//188 594//188 596//188
f 596//240 595//240 597//240
f 228//189 227//189 598//189 595//189
f 231//190 230//190 596//190 597//190
f 595//241 598//241 597//241
f 227//191 226//191 599//191 598//191
f 232//192 231//192 597//192 600//192
f 597//242 598//242 600//242
f 598//6 599//6 600//6
f 226//193 225//193 601//193 599//193
f 233//194 232//194 600//194 602//194
f 600//6 599//6 602//6
f 599//6 601//6 602//6
f 225//195 224//195 603//195 601//195
f 234//196 233//196 602//196 604//196
f 602//6 601//6 604//6
f 601//6 603//6 604//6
f 224//197 223//197 605//197 603//197
f 235//198 234//198 604//198 606//198
f 604//153 603//153 606//153
f 603//6 605//6 606//6
f 223//199 222//199 607//199 605//199
f 236//200 235//200 606//200 608//200
f 606//158 605//158 608//158
f 605//6 607//6 608//6
f 222//201 221//201 609//201 607//201
f 237//202 236//202 608//202 610//202
f 608//6 607//6 610//6
f 607//6 609//6 610//6
f 221//203 220//203 611//203 609//203
f 238//204 237//204 610//204 612//204
f 610//6 609//6 612//6
f 609//6 611//6 612//6
f 220//205 219//205 613//205 611//205
f 239//206 238//206 612//206 614//206
f 612//88 611//88 614//88
f 611//6 613//6 614//6
f 219//207 218//207 615//207 613//207
f 365//208 239//208 614//208 616//208
f 614//6 613//6 616//6
f 613//6 615//6 616//6
f 218//210 217//210 617//210 615//210
f 366//211 365//211 616//211 618//211
f 616//209 615//209 618//209
f 615//6 617//6 618//6
f 217//212 389//212 619//212 617//212
f 367//213 366//213 618//213 620//213
f 617//6 619//6 618//6
f 389//214 388//214 621//214 619//214
f 368//215 367//215 620//215 622//215
f 618//6 619//6 620//6
f 619//88 621//88 622//88
f 388//216 387//216 623//216 621//216
f 369//217 368//217 622//217 624//217
f 620//6 619//6 622//6
f 622//6 621//6 624//6
f 621//209 623//209 624//209
f 387//218 386//218 625//218 623//218
f 370//219 369//219 624//219 626//219
f 624//6 623//6 626//6
f 623//6 625//6 626//6
f 386//220 385//220 627//220 625//220
f 371//221 370//221 626//221 628//221
f 626//6 625//6 628//6
f 625//6 627//6 628//6
f 385//222 384//222 629//222 627//222
f 372//223 371//223 628//223 630//223
f 628//6 627//6 630//6
f 627//153 629//153 630//153
f 384//224 383//224 631//224 629//224
f 373//225 372//225 630//225 632//225
f 630//6 629//6 632//6
f 629//96 631//96 632//96
f 383//226 382//226 633//226 631//226
f 374//227 373//227 632//227 634//227
f 632//16 631//16 634//16
f 631//156 633//156 634//156
f 382//228 381//228 635//228 633//228
f 375//229 374//229 634//229 636//229
f 634//6 633//6 636//6
f 633//6 635//6 636//6
f 381//230 380//230 637//230 635//230
f 376//231 375//231 636//231 638//231
f 636//6 635//6 638//6
f 635//243 637//243 638//243
f 380//234 379//234 639//234 637//234
f 377//235 376//235 638//235 640//235
f 638//244 637//244 640//244
f 637//245 639//245 640//245
f 379//237 378//237 641//237 639//237
f 378//238 377//238 640//238 641//238
f 640//246 639//246 641//246
f 642//247 643//247 644//247
f 200//7 199//7 643//7 642//7
f 201//8 200//8 642//8 644//8
f 643//248 645//248 644//248
f 199//9 198//9 645//9 643//9
f 202//10 201//10 644//10 646//10
f 645//6 647//6 644//6
f 198//11 197//11 647//11 645//11
f 203//12 202//12 646//12 648//12
f 644//6 647//6 646//6
f 197//14 196//14 649//14 647//14
f 204//15 203//15 648//15 650//15
f 646//88 651//88 648//88
f 647//6 649//6 646//6
f 196//18 195//18 652//18 649//18
f 205//19 204//19 650//19 653//19
f 648//20 654//20 650//20
f 652//6 651//6 646//6
f 651//96 655//96 648//96
f 649//6 652//6 646//6
f 195//23 194//23 651//23 652//23
f 206//24 205//24 653//24 656//24
f 650//6 657//6 653//6
f 658//96 654//96 648//96
f 654//6 659//6 650//6
f 194//27 193//27 655//27 651//27
f 655//96 658//96 648//96
f 207//29 206//29 656//29 660//29
f 653//96 661//96 656//96
f 659//6 657//6 650//6
f 657//6 662//6 653//6
f 192//30 191//30 654//30 658//30
f 191//31 190//31 659//31 654//31
f 193//32 192//32 658//32 655//32
f 208//33 207//33 660//33 663//33
f 656//6 664//6 660//6
f 653//96 665//96 661//96
f 656//249 661//249 666//249
f 190//36 189//36 657//36 659//36
f 189//37 188//37 662//37 657//37
f 662//6 667//6 653//6
f 209//38 208//38 663//38 668//38
f 660//35 669//35 663//35
f 656//250 666//250 664//250
f 660//251 664//251 670//251
f 653//16 667//16 665//16
f 182//41 181//41 661//41 665//41
f 181//42 180//42 666//42 661//42
f 188//3 187//3 671//3 662//3
f 662//6 672//6 667//6
f 210//44 209//44 668//44 673//44
f 663//34 674//34 668//34
f 660//35 675//35 669//35
f 663//252 669//252 676//252
f 180//47 179//47 664//47 666//47
f 660//48 670//48 675//48
f 179//49 178//49 670//49 664//49
f 183//50 182//50 665//50 667//50
f 662//253 671//253 677//253
f 187//51 186//51 677//51 671//51
f 662//43 678//43 672//43
f 184//53 183//53 667//53 672//53
f 211//54 210//54 673//54 679//54
f 668//16 680//16 673//16
f 663//34 676//34 674//34
f 674//254 681//254 668//254
f 177//55 176//55 669//55 675//55
f 176//56 175//56 676//56 669//56
f 178//57 177//57 675//57 670//57
f 662//255 677//255 678//255
f 186//58 185//58 678//58 677//58
f 185//59 184//59 672//59 678//59
f 212//60 211//60 679//60 682//60
f 673//6 683//6 679//6
f 684//153 680//153 668//153
f 680//256 685//256 673//256
f 175//61 174//61 674//61 676//61
f 174//62 173//62 681//62 674//62
f 681//16 684//16 668//16
f 213//63 212//63 682//63 686//63
f 679//6 687//6 682//6
f 688//20 683//20 673//20
f 683//257 689//257 679//257
f 172//65 171//65 680//65 684//65
f 171//66 170//66 685//66 680//66
f 685//88 688//88 673//88
f 173//67 172//67 684//67 681//67
f 214//68 213//68 686//68 690//68
f 682//6 691//6 686//6
f 689//20 687//20 679//20
f 687//6 692//6 682//6
f 169//69 168//69 683//69 688//69
f 168//70 167//70 689//70 683//70
f 170//71 169//71 688//71 685//71
f 215//72 214//72 690//72 693//72
f 686//6 694//6 690//6
f 692//6 691//6 682//6
f 691//6 695//6 686//6
f 167//73 166//73 687//73 689//73
f 166//74 165//74 692//74 687//74
f 216//75 215//75 693//75 696//75
f 690//6 697//6 693//6
f 695//34 694//34 686//34
f 694//35 697//35 690//35
f 165//76 164//76 691//76 692//76
f 164//77 163//77 695//77 691//77
f 390//78 216//78 696//78 698//78
f 693//6 699//6 696//6
f 697//6 699//6 693//6
f 163//79 162//79 694//79 695//79
f 162//80 161//80 697//80 694//80
f 391//81 390//81 698//81 700//81
f 696//34 701//34 698//34
f 699//6 701//6 696//6
f 161//82 160//82 699//82 697//82
f 392//83 391//83 700//83 702//83
f 698//35 703//35 700//35
f 701//6 703//6 698//6
f 160//84 159//84 701//84 699//84
f 393//85 392//85 702//85 704//85
f 700//6 705//6 702//6
f 703//6 706//6 700//6
f 159//86 158//86 703//86 701//86
f 394//87 393//87 704//87 707//87
f 702//6 708//6 704//6
f 706//6 705//6 700//6
f 705//88 708//88 702//88
f 158//89 157//89 706//89 703//89
f 395//90 394//90 707//90 709//90
f 704//6 710//6 707//6
f 708//91 711//91 704//91
f 157//92 156//92 705//92 706//92
f 156//93 155//93 708//93 705//93
f 396//94 395//94 709//94 712//94
f 707//6 713//6 709//6
f 714//6 710//6 704//6
f 710//6 715//6 707//6
f 155//97 154//97 711//97 708//97
f 711//6 714//6 704//6
f 397//98 396//98 712//98 716//98
f 709//6 713//6 712//6
f 715//6 713//6 707//6
f 153//100 152//100 710//100 714//100
f 152//101 151//101 715//101 710//101
f 154//102 153//102 714//102 711//102
f 398//103 397//103 716//103 717//103
f 712//6 713//6 716//6
f 151//3 150//3 713//3 715//3
f 254//104 398//104 717//104 718//104
f 716//6 713//6 717//6
f 150//106 149//106 719//106 713//106
f 255//107 254//107 718//107 720//107
f 717//6 713//6 718//6
f 721//6 713//6 719//6
f 149//109 148//109 722//109 719//109
f 256//110 255//110 720//110 723//110
f 718//6 713//6 720//6
f 723//6 713//6 721//6
f 721//6 719//6 724//6
f 719//6 722//6 724//6
f 148//111 147//111 725//111 722//111
f 257//112 256//112 723//112 721//112
f 720//6 713//6 723//6
f 258//113 257//113 721//113 724//113
f 722//6 725//6 724//6
f 147//114 146//114 726//114 725//114
f 259//115 258//115 724//115 727//115
f 725//6 726//6 724//6
f 146//116 145//116 728//116 726//116
f 260//117 259//117 727//117 729//117
f 724//6 726//6 727//6
f 726//6 728//6 727//6
f 145//118 144//118 730//118 728//118
f 261//119 260//119 729//119 731//119
f 727//6 730//6 729//6
f 728//64 730//64 727//64
f 144//120 143//120 732//120 730//120
f 262//121 261//121 731//121 733//121
f 729//6 732//6 731//6
f 730//20 732//20 729//20
f 143//122 142//122 734//122 732//122
f 263//123 262//123 733//123 735//123
f 731//6 736//6 733//6
f 732//6 734//6 731//6
f 142//124 141//124 736//124 734//124
f 264//125 263//125 735//125 737//125
f 733//34 738//34 735//34
f 734//6 736//6 731//6
f 736//34 738//34 733//34
f 141//126 140//126 738//126 736//126
f 265//127 264//127 737//127 739//127
f 735//35 740//35 737//35
f 738//35 740//35 735//35
f 140//128 139//128 740//128 738//128
f 266//129 265//129 739//129 741//129
f 737//6 742//6 739//6
f 740//6 742//6 737//6
f 139//77 138//77 742//77 740//77
f 94//130 266//130 741//130 743//130
f 739//6 744//6 741//6
f 742//6 745//6 739//6
f 138//131 137//131 745//131 742//131
f 95//132 94//132 743//132 746//132
f 741//6 747//6 743//6
f 745//6 744//6 739//6
f 744//6 748//6 741//6
f 137//133 136//133 744//133 745//133
f 96//134 95//134 746//134 749//134
f 743//6 750//6 746//6
f 748//6 747//6 741//6
f 747//6 751//6 743//6
f 136//135 135//135 748//135 744//135
f 97//136 96//136 749//136 752//136
f 746//6 753//6 749//6
f 751//6 750//6 743//6
f 750//257 754//257 746//257
f 135//137 134//137 747//137 748//137
f 134//138 133//138 751//138 747//138
f 98//139 97//139 752//139 755//139
f 749//6 756//6 752//6
f 757//6 753//6 746//6
f 753//258 758//258 749//258
f 133//140 132//140 750//140 751//140
f 132//141 131//141 754//141 750//141
f 754//209 759//209 746//209
f 99//142 98//142 755//142 760//142
f 752//6 756//6 755//6
f 761//6 756//6 749//6
f 129//143 128//143 753//143 757//143
f 759//6 757//6 746//6
f 128//145 127//145 758//145 753//145
f 758//259 761//259 749//259
f 131//147 130//147 759//147 754//147
f 100//148 99//148 760//148 762//148
f 755//6 756//6 760//6
f 763//260 756//260 761//260
f 130//150 129//150 757//150 759//150
f 127//151 126//151 761//151 758//151
f 101//152 100//152 762//152 764//152
f 760//6 765//6 762//6
f 756//6 766//6 760//6
f 767//261 756//261 763//261
f 126//154 125//154 763//154 761//154
f 102//155 101//155 764//155 768//155
f 762//6 769//6 764//6
f 770//158 765//158 760//158
f 765//6 771//6 762//6
f 10//157 9//157 766//157 756//157
f 766//153 770//153 760//153
f 772//6 756//6 767//6
f 125//159 124//159 767//159 763//159
f 103//160 102//160 768//160 773//160
f 764//6 774//6 768//6
f 771//6 769//6 762//6
f 769//6 775//6 764//6
f 113//162 112//162 765//162 770//162
f 112//163 111//163 771//163 765//163
f 114//3 10//3 756//3 776//3
f 9//164 113//164 770//164 766//164
f 777//6 756//6 772//6
f 124//165 123//165 772//165 767//165
f 104//166 103//166 773//166 778//166
f 768//6 779//6 773//6
f 780//6 774//6 764//6
f 774//262 781//262 768//262
f 111//168 110//168 769//168 771//168
f 110//169 109//169 775//169 769//169
f 775//6 780//6 764//6
f 115//170 114//170 776//170 782//170
f 776//263 756//263 782//263
f 783//6 756//6 777//6
f 123//172 122//172 777//172 772//172
f 105//173 104//173 778//173 779//173
f 779//16 778//16 773//16
f 781//264 779//264 768//264
f 108//175 107//175 774//175 780//175
f 107//176 106//176 781//176 774//176
f 109//177 108//177 780//177 775//177
f 116//178 115//178 782//178 784//178
f 782//265 756//265 784//265
f 785//6 756//6 783//6
f 122//180 121//180 783//180 777//180
f 106//181 105//181 779//181 781//181
f 117//182 116//182 784//182 786//182
f 784//6 756//6 786//6
f 787//6 756//6 785//6
f 121//183 120//183 785//183 783//183
f 118//184 117//184 786//184 788//184
f 786//6 756//6 788//6
f 788//6 756//6 787//6
f 120//185 119//185 787//185 785//185
f 119//186 118//186 788//186 787//186
